<?xml version="1.0" encoding="UTF-8" standalone="no"?>
<!-- Created with Inkscape (http://www.inkscape.org/) -->

<svg
   xmlns:dc="http://purl.org/dc/elements/1.1/"
   xmlns:cc="http://creativecommons.org/ns#"
   xmlns:rdf="http://www.w3.org/1999/02/22-rdf-syntax-ns#"
   xmlns:svg="http://www.w3.org/2000/svg"
   xmlns="http://www.w3.org/2000/svg"
   xmlns:sodipodi="http://sodipodi.sourceforge.net/DTD/sodipodi-0.dtd"
   xmlns:inkscape="http://www.inkscape.org/namespaces/inkscape"
   id="svg2440"
   sodipodi:version="0.32"
   inkscape:version="0.48.3.1 r9886"
   width="223.5094"
   height="140.95987"
   version="1.0"
   sodipodi:docname="logo_black.svg"
   inkscape:output_extension="org.inkscape.output.svg.inkscape">
  <metadata
     id="metadata2445">
    <rdf:RDF>
      <cc:Work
         rdf:about="">
        <dc:format>image/svg+xml</dc:format>
        <dc:type
           rdf:resource="http://purl.org/dc/dcmitype/StillImage" />
      </cc:Work>
    </rdf:RDF>
  </metadata>
  <defs
     id="defs2443">
    <inkscape:perspective
       sodipodi:type="inkscape:persp3d"
       inkscape:vp_x="0 : 526.18109 : 1"
       inkscape:vp_y="0 : 1000 : 0"
       inkscape:vp_z="744.09448 : 526.18109 : 1"
       inkscape:persp3d-origin="372.04724 : 350.78739 : 1"
       id="perspective2447" />
  </defs>
  <sodipodi:namedview
     inkscape:window-height="979"
     inkscape:window-width="1680"
     inkscape:pageshadow="2"
     inkscape:pageopacity="0.0"
     guidetolerance="10.0"
     gridtolerance="10.0"
     objecttolerance="10.0"
     borderopacity="1.0"
     bordercolor="#666666"
     pagecolor="#ffffff"
     id="base"
     showgrid="true"
     inkscape:object-paths="true"
     inkscape:object-nodes="true"
     inkscape:zoom="1.9091883"
     inkscape:cx="107.8833"
     inkscape:cy="51.247859"
     inkscape:window-x="0"
     inkscape:window-y="25"
     inkscape:current-layer="svg2440"
     showguides="true"
     inkscape:guide-bbox="true"
     inkscape:window-maximized="1">
    <inkscape:grid
       type="xygrid"
       id="grid3259"
       visible="true"
       enabled="true" />
  </sodipodi:namedview>
  <path
     style="fill:#000000;fill-rule:evenodd;stroke:#000000;stroke-width:1px;stroke-linecap:butt;stroke-linejoin:miter;stroke-opacity:1;fill-opacity:1"
     d="M 130.00237,116.50019 C 130.00237,116.50019 123.70674,134.18967 119.96138,136.50019 C 116.21602,138.81071 113.00237,136.50019 113.00237,136.50019 L 128.00237,103.50019 L 130.00237,116.50019 z"
     id="path3253"
     sodipodi:nodetypes="czccc" />
  <path
     style="fill:#000000;fill-rule:evenodd;stroke:#000000;stroke-width:1px;stroke-linecap:butt;stroke-linejoin:miter;stroke-opacity:1;fill-opacity:1"
     d="M 0.50236747,16.500187 C 0.41576527,9.6575177 2.1121684,0.50018679 8.0023675,0.50018687 c 5.8901985,8e-8 2.1988205,16.00000013 7.4999995,16.00000013 5.301179,0 2.198821,-16.00000013 7.5,-16.00000013 5.301179,0 3.047775,13.16988813 7.5,16.00000013 4.452225,2.830112 13.047775,2.830112 17.5,0 4.452225,-2.830112 2.198821,-16.00000013 7.5,-16.00000013 5.301179,0 3.997195,13.77339913 7.5,16.00000013 3.502805,2.226601 6.552256,2.254878 10,0 3.447744,-2.254878 -0.661733,-16.05873233 7,-16.00000013 7.661733,0.0587322 4.429745,25.30065013 13,31.00000013 8.570263,5.69935 26.175573,5.5333 35.000003,0 8.82443,-5.5333 7.18381,-31.04816713 15,-31.00000013 7.81619,0.048167 3.9972,13.77339913 7.5,16.00000013 3.5028,2.226601 6.4972,2.226601 10,0 3.5028,-2.226601 2.19882,-16.00000013 7.5,-16.00000013 5.30118,0 3.04777,13.16988813 7.5,16.00000013 4.45223,2.830112 13.04777,2.830112 17.5,0 4.45223,-2.830112 2.19882,-16.00000013 7.5,-16.00000013 5.30118,0 2.19882,16.00000013 7.5,16.00000013 5.30118,0 2.19882,-16.00000013 7.5,-16.00000013 5.30118,0 7.3066,9.31333283 7.5,16.00000013 0.1934,6.686667 -3.61025,18.975074 -10,25 -6.38975,6.024926 -20.13562,8.399232 -30,10 -9.86438,1.600768 -30.54351,-6.183051 -35,0 -4.45649,6.183051 2.34725,11.941349 5,15 2.65275,3.058651 10,5 10,5 l 0,50.000003 c 0,0 -6.2933,1.98377 -10,0 -3.7067,-1.98377 -5.62725,-5.27224 -10,-5 -4.37275,0.27224 -10.59476,2.08605 -13,0 -2.40524,-2.08605 -1.87037,-13.00032 -1.87037,-13.00032 0,0 -5.48919,26.80763 -15.12963,33.00032 -9.64044,6.19269 -32.27674,4.2806 -40.000003,0 -7.723263,-4.2806 -9.397861,-10.16352 -10,-16 -0.602139,-5.83648 3.278188,-16.40483 7,-19 3.721812,-2.59517 7.129426,-0.0863 10,-2 2.870574,-1.913719 5.288321,-7.004563 7,-10.000003 1.711679,-2.99544 2.096476,-2.318722 4,-8 1.903524,-5.681278 8.35209,-21.64979 0.09259,-29.944445 -8.2595,-8.294655 -36.290789,1.866611 -48.092592,-0.05556 -11.801803,-1.922166 -23.24923,-4.145088 -30,-10 -6.7507692,-5.854912 -12.41339733,-18.157331 -12.49999953,-25 z"
     id="path2451"
     sodipodi:nodetypes="cszzzzzzzzzzzzzzzzzzzzzzzzcczszczzzzszzzzzz" />
</svg>
